<?xml version="1.0" encoding="UTF-8"?>
<svg xmlns="http://www.w3.org/2000/svg" xmlns:xlink="http://www.w3.org/1999/xlink"
     width="232" height="72" viewBox="-4 -68 232 72">
<defs>
</defs>
<path d="M0,0 L224,0" stroke-width="2" stroke="grey" />
<circle cx="0" cy="0" r="0.5" fill="grey" stroke-width="1" stroke="grey" />
<circle cx="224" cy="0" r="0.5" fill="grey" stroke-width="1" stroke="grey" />
<path d="M0,-16 L224,-16" stroke-width="2" stroke="grey" />
<circle cx="0" cy="-16" r="0.5" fill="grey" stroke-width="1" stroke="grey" />
<circle cx="224" cy="-16" r="0.5" fill="grey" stroke-width="1" stroke="grey" />
<path d="M0,-32 L224,-32" stroke-width="2" stroke="grey" />
<circle cx="0" cy="-32" r="0.5" fill="grey" stroke-width="1" stroke="grey" />
<circle cx="224" cy="-32" r="0.5" fill="grey" stroke-width="1" stroke="grey" />
<path d="M0,-48 L224,-48" stroke-width="2" stroke="grey" />
<circle cx="0" cy="-48" r="0.5" fill="grey" stroke-width="1" stroke="grey" />
<circle cx="224" cy="-48" r="0.5" fill="grey" stroke-width="1" stroke="grey" />
<path d="M0,-64 L224,-64" stroke-width="2" stroke="grey" />
<circle cx="0" cy="-64" r="0.5" fill="grey" stroke-width="1" stroke="grey" />
<circle cx="224" cy="-64" r="0.5" fill="grey" stroke-width="1" stroke="grey" />
<path d="M0,0 L0,-64" stroke-width="2" stroke="grey" />
<circle cx="0" cy="0" r="0.5" fill="grey" stroke-width="1" stroke="grey" />
<circle cx="0" cy="-64" r="0.5" fill="grey" stroke-width="1" stroke="grey" />
<path d="M16,0 L16,-64" stroke-width="2" stroke="grey" />
<circle cx="16" cy="0" r="0.5" fill="grey" stroke-width="1" stroke="grey" />
<circle cx="16" cy="-64" r="0.5" fill="grey" stroke-width="1" stroke="grey" />
<path d="M32,0 L32,-64" stroke-width="2" stroke="grey" />
<circle cx="32" cy="0" r="0.5" fill="grey" stroke-width="1" stroke="grey" />
<circle cx="32" cy="-64" r="0.5" fill="grey" stroke-width="1" stroke="grey" />
<path d="M48,0 L48,-64" stroke-width="2" stroke="grey" />
<circle cx="48" cy="0" r="0.5" fill="grey" stroke-width="1" stroke="grey" />
<circle cx="48" cy="-64" r="0.5" fill="grey" stroke-width="1" stroke="grey" />
<path d="M64,0 L64,-64" stroke-width="2" stroke="grey" />
<circle cx="64" cy="0" r="0.5" fill="grey" stroke-width="1" stroke="grey" />
<circle cx="64" cy="-64" r="0.5" fill="grey" stroke-width="1" stroke="grey" />
<path d="M80,0 L80,-64" stroke-width="2" stroke="grey" />
<circle cx="80" cy="0" r="0.5" fill="grey" stroke-width="1" stroke="grey" />
<circle cx="80" cy="-64" r="0.5" fill="grey" stroke-width="1" stroke="grey" />
<path d="M96,0 L96,-64" stroke-width="2" stroke="grey" />
<circle cx="96" cy="0" r="0.5" fill="grey" stroke-width="1" stroke="grey" />
<circle cx="96" cy="-64" r="0.5" fill="grey" stroke-width="1" stroke="grey" />
<path d="M112,0 L112,-64" stroke-width="2" stroke="grey" />
<circle cx="112" cy="0" r="0.5" fill="grey" stroke-width="1" stroke="grey" />
<circle cx="112" cy="-64" r="0.5" fill="grey" stroke-width="1" stroke="grey" />
<path d="M128,0 L128,-64" stroke-width="2" stroke="grey" />
<circle cx="128" cy="0" r="0.5" fill="grey" stroke-width="1" stroke="grey" />
<circle cx="128" cy="-64" r="0.5" fill="grey" stroke-width="1" stroke="grey" />
<path d="M144,0 L144,-64" stroke-width="2" stroke="grey" />
<circle cx="144" cy="0" r="0.5" fill="grey" stroke-width="1" stroke="grey" />
<circle cx="144" cy="-64" r="0.5" fill="grey" stroke-width="1" stroke="grey" />
<path d="M160,0 L160,-64" stroke-width="2" stroke="grey" />
<circle cx="160" cy="0" r="0.5" fill="grey" stroke-width="1" stroke="grey" />
<circle cx="160" cy="-64" r="0.5" fill="grey" stroke-width="1" stroke="grey" />
<path d="M176,0 L176,-64" stroke-width="2" stroke="grey" />
<circle cx="176" cy="0" r="0.5" fill="grey" stroke-width="1" stroke="grey" />
<circle cx="176" cy="-64" r="0.5" fill="grey" stroke-width="1" stroke="grey" />
<path d="M192,0 L192,-64" stroke-width="2" stroke="grey" />
<circle cx="192" cy="0" r="0.5" fill="grey" stroke-width="1" stroke="grey" />
<circle cx="192" cy="-64" r="0.5" fill="grey" stroke-width="1" stroke="grey" />
<path d="M208,0 L208,-64" stroke-width="2" stroke="grey" />
<circle cx="208" cy="0" r="0.5" fill="grey" stroke-width="1" stroke="grey" />
<circle cx="208" cy="-64" r="0.5" fill="grey" stroke-width="1" stroke="grey" />
<path d="M224,0 L224,-64" stroke-width="2" stroke="grey" />
<circle cx="224" cy="0" r="0.5" fill="grey" stroke-width="1" stroke="grey" />
<circle cx="224" cy="-64" r="0.5" fill="grey" stroke-width="1" stroke="grey" />
<circle cx="0" cy="0" r="3" fill="red" stroke-width="2" stroke="red" />
<path d="M0,0 L16,-16" fill="none" stroke-width="4" stroke="red" />
<circle cx="16" cy="-16" r="3" fill="red" stroke-width="2" stroke="red" />
<path d="M16,-16 L48,-16" fill="none" stroke-width="4" stroke="red" />
<circle cx="48" cy="-16" r="3" fill="red" stroke-width="2" stroke="red" />
<path d="M48,-16 L64,-32" fill="none" stroke-width="4" stroke="red" />
<circle cx="64" cy="-32" r="3" fill="red" stroke-width="2" stroke="red" />
<path d="M64,-32 L96,-32" fill="none" stroke-width="4" stroke="red" />
<circle cx="96" cy="-32" r="3" fill="red" stroke-width="2" stroke="red" />
<path d="M96,-32 L112,-48" fill="none" stroke-width="4" stroke="red" />
<circle cx="112" cy="-48" r="3" fill="red" stroke-width="2" stroke="red" />
<path d="M112,-48 L128,-32" fill="none" stroke-width="4" stroke="red" />
<circle cx="128" cy="-32" r="3" fill="red" stroke-width="2" stroke="red" />
<path d="M128,-32 L160,-32" fill="none" stroke-width="4" stroke="red" />
<circle cx="160" cy="-32" r="3" fill="red" stroke-width="2" stroke="red" />
<path d="M160,-32 L192,-32" fill="none" stroke-width="4" stroke="red" />
<circle cx="192" cy="-32" r="3" fill="red" stroke-width="2" stroke="red" />
<path d="M192,-32 L208,-16" fill="none" stroke-width="4" stroke="red" />
<circle cx="208" cy="-16" r="3" fill="red" stroke-width="2" stroke="red" />
<path d="M208,-16 L224,0" fill="none" stroke-width="4" stroke="red" />
<circle cx="224" cy="0" r="3" fill="red" stroke-width="2" stroke="red" />
</svg>