<?xml version="1.0" encoding="UTF-8"?>
<svg xmlns="http://www.w3.org/2000/svg" xmlns:xlink="http://www.w3.org/1999/xlink"
     width="60" height="80" viewBox="-30 -72 60 80">
<defs>
</defs>
<path d="M0,-64 L-20,-32" fill="none" stroke-width="4" stroke="grey" />
<circle cx="-20" cy="-32" r="4" fill="red" stroke-width="2" stroke="grey" />
<path d="M-20,-32 L-20,0" fill="none" stroke-width="4" stroke="grey" />
<circle cx="-20" cy="0" r="4" fill="red" stroke-width="2" stroke="grey" />
<circle cx="-20" cy="0" r="4" fill="red" stroke-width="2" stroke="grey" />
<circle cx="-20" cy="-32" r="4" fill="red" stroke-width="2" stroke="grey" />
<path d="M0,-64 L0,-32" fill="none" stroke-width="4" stroke="grey" />
<circle cx="0" cy="-32" r="4" fill="red" stroke-width="2" stroke="grey" />
<path d="M0,-32 L0,0" fill="none" stroke-width="4" stroke="grey" />
<circle cx="0" cy="0" r="4" fill="red" stroke-width="2" stroke="grey" />
<circle cx="0" cy="0" r="4" fill="red" stroke-width="2" stroke="grey" />
<circle cx="0" cy="-32" r="4" fill="red" stroke-width="2" stroke="grey" />
<path d="M0,-64 L20,-32" fill="none" stroke-width="4" stroke="grey" />
<circle cx="20" cy="-32" r="4" fill="red" stroke-width="2" stroke="grey" />
<circle cx="20" cy="-32" r="4" fill="red" stroke-width="2" stroke="grey" />
<circle cx="0" cy="-64" r="4" fill="red" stroke-width="2" stroke="grey" />
</svg>